[
	{
		"name": "Forum",
		"iconUrl": "resource:/forum.svg",
		"type": "external",
		"data": "https://forum.manjaro.org/"
	},
	{
		"name": "Read Me",
		"iconUrl": "resource:/readme.svg",
		"type": "text",
		"data": ""
	},
	{
		"name": "Release Info",
		"iconUrl": "resource:/release-info.svg",
		"type": "text",
		"data":""
	},
	{
		"name": "Wiki",
		"iconUrl": "resource:/wiki.svg",
		"type": "external",
		"data": "https://wiki.manjaro.org/"
	},
		{
		"name": "Chat Room",
		"iconUrl": "resource:/chat-room.svg",
		"type": "external",
		"data": "https://forum.manjaro.org/"
	},
	{
		"name": "Mailing lists",
		"iconUrl": "resource:/mailing-list.svg",
		"type": "external",
		"data": "https://lists.manjaro.org/cgi-bin/mailman/listinfo"
	},
	{
		"name": "Development",
		"iconUrl": "resource:/development.svg",
		"type": "external",
		"data": "https://gitlab.manjaro.org/"
	},
	{
		"name": "Get Involved",
		"iconUrl": "resource:/get-involved.svg",
		"type": "text",
		"data": ""
	},
	{
			"name": "Donate",
			"iconUrl": "resource:/donate.svg",
			"type": "external",
			"data": "https://manjaro.org/donate/"
		}
]
